%YAML 1.1
%TAG !u! tag:unity3d.com,2011:
--- !u!114 &11400000
MonoBehaviour:
  m_ObjectHideFlags: 0
  m_PrefabParentObject: {fileID: 0}
  m_PrefabInternal: {fileID: 0}
  m_GameObject: {fileID: 0}
  m_Enabled: 1
  m_EditorHideFlags: 0
  m_Script: {fileID: 11500000, guid: 4d31d43e86d42ff4d9650a1ed69117cc, type: 3}
  m_Name: Special Attack To Roam
  m_EditorClassIdentifier: 
  decision: {fileID: 11400000, guid: 20e5005cb91686b408456d26db5a6897, type: 2}
  trueState: {fileID: 11400000, guid: ddf8b9a64677db045b04a4e7566eb301, type: 2}
  falseState: {fileID: 11400000, guid: 4be7bbde1d765924f9d6b28109bd8b0b, type: 2}
